QA for Antisaccade Data Using List-Columns – Data Management and Visualization
…
trial_issues <- trial_counts %>% filter(n_total != expected_trials_per_run)
if (nrow(trial_issues) > 0) {
  print(trial_issues)
}

# A tibble: 412 × 6
   LunaID   run n_correct n_error n_drop n_total
    <int> <int>     <int>   <int>  <int>   <int>
 1  10128     2        27       3     13      43
 2  10153     3        23       2     18      43
 3  10156     1        25      24      2      51
 4  10181     4        38       2      3      43
 5  10406     2        39       2      2      43
 6  10466     1        27       5     12      44
 7  10466     2        26       2     15      43
 8  10466     3        22       8     16      46
 9  10466     4        28       4     12      44
10  10565     1        29      13      6      48
# ℹ 402 more rows
…
